<?xml version="1.0" encoding="UTF-8" standalone="no"?>
<!-- Created with Inkscape (http://www.inkscape.org/) -->

<svg
   xmlns:dc="http://purl.org/dc/elements/1.1/"
   xmlns:cc="http://creativecommons.org/ns#"
   xmlns:rdf="http://www.w3.org/1999/02/22-rdf-syntax-ns#"
   xmlns:svg="http://www.w3.org/2000/svg"
   xmlns="http://www.w3.org/2000/svg"
   xmlns:sodipodi="http://sodipodi.sourceforge.net/DTD/sodipodi-0.dtd"
   xmlns:inkscape="http://www.inkscape.org/namespaces/inkscape"
   width="16pt"
   height="16pt"
   viewBox="0 0 20.000001 20"
   id="svg4292"
   version="1.1"
   inkscape:version="0.91 r13725"
   sodipodi:docname="puce-black-en.svg">
  <defs
     id="defs4294">
    <inkscape:perspective
       sodipodi:type="inkscape:persp3d"
       inkscape:vp_x="0 : 10 : 1"
       inkscape:vp_y="0 : 1000 : 0"
       inkscape:vp_z="20.000001 : 10 : 1"
       inkscape:persp3d-origin="10.000001 : 6.6666667 : 1"
       id="perspective4276" />
  </defs>
  <sodipodi:namedview
     id="base"
     pagecolor="#ffffff"
     bordercolor="#666666"
     borderopacity="1.0"
     inkscape:pageopacity="0.0"
     inkscape:pageshadow="2"
     inkscape:zoom="24.064453"
     inkscape:cx="14.464059"
     inkscape:cy="11.512834"
     inkscape:document-units="px"
     inkscape:current-layer="layer1"
     showgrid="false"
     units="pt"
     inkscape:window-width="1280"
     inkscape:window-height="755"
     inkscape:window-x="0"
     inkscape:window-y="17"
     inkscape:window-maximized="1" />
  <metadata
     id="metadata4297">
    <rdf:RDF>
      <cc:Work
         rdf:about="">
        <dc:format>image/svg+xml</dc:format>
        <dc:type
           rdf:resource="http://purl.org/dc/dcmitype/StillImage" />
        <dc:title></dc:title>
      </cc:Work>
    </rdf:RDF>
  </metadata>
  <g
     inkscape:label="Calque 1"
     inkscape:groupmode="layer"
     id="layer1"
     transform="translate(0,-1032.3623)">
    <path
       d="m 14.407469,1042.3371 a 4.472987,4.472987 0 1 0 -8.9459691,0 4.472987,4.472987 0 1 0 8.9459691,0 z"
       style="fill:#000000;stroke:#000000;stroke-opacity:1;stroke-width:1.00000012;stroke-miterlimit:4;stroke-dasharray:none"
       id="path143"
       inkscape:connector-curvature="0" />
    <text
       xml:space="preserve"
       style="font-style:normal;font-weight:normal;font-size:6.51087713px;line-height:125%;font-family:sans-serif;letter-spacing:0px;word-spacing:0px;fill:#000000;fill-opacity:1;stroke:#ffffff;stroke-width:0.40000004;stroke-linecap:butt;stroke-linejoin:miter;stroke-miterlimit:4;stroke-dasharray:none;stroke-opacity:1"
       x="5.6346388"
       y="1044.5447"
       id="text4134"
       sodipodi:linespacing="125%"><tspan
         sodipodi:role="line"
         id="tspan4136"
         x="5.6346388"
         y="1044.5447"
         style="font-style:normal;font-variant:normal;font-weight:normal;font-stretch:normal;font-family:ocr-pbi-canonique;-inkscape-font-specification:ocr-pbi-canonique;fill:#ffffff;stroke:#ffffff;stroke-width:0.40000004;stroke-miterlimit:4;stroke-dasharray:none;stroke-opacity:1">EN</tspan></text>
  </g>
</svg>
