<?xml version="1.0" encoding="UTF-8" standalone="no"?>
<svg
   xmlns:dc="http://purl.org/dc/elements/1.1/"
   xmlns:cc="http://creativecommons.org/ns#"
   xmlns:rdf="http://www.w3.org/1999/02/22-rdf-syntax-ns#"
   xmlns:svg="http://www.w3.org/2000/svg"
   xmlns="http://www.w3.org/2000/svg"
   xmlns:sodipodi="http://sodipodi.sourceforge.net/DTD/sodipodi-0.dtd"
   xmlns:inkscape="http://www.inkscape.org/namespaces/inkscape"
   width="210mm"
   height="297mm"
   id="svg2"
   version="1.1"
   inkscape:version="0.91 r13725"
   sodipodi:docname="B1-gradient-03.svg">
  <metadata
     id="metadata293">
    <rdf:RDF>
      <cc:Work
         rdf:about="">
        <dc:format>image/svg+xml</dc:format>
        <dc:type
           rdf:resource="http://purl.org/dc/dcmitype/StillImage" />
        <dc:title />
      </cc:Work>
    </rdf:RDF>
  </metadata>
  <sodipodi:namedview
     pagecolor="#ffffff"
     bordercolor="#666666"
     borderopacity="1"
     objecttolerance="10"
     gridtolerance="10"
     guidetolerance="10"
     inkscape:pageopacity="0"
     inkscape:pageshadow="2"
     inkscape:window-width="1280"
     inkscape:window-height="755"
     id="namedview291"
     showgrid="false"
     inkscape:zoom="0.47465371"
     inkscape:cx="505.70592"
     inkscape:cy="898.10425"
     inkscape:window-x="0"
     inkscape:window-y="17"
     inkscape:window-maximized="1"
     inkscape:current-layer="g23"
     units="mm" />
  <desc
     id="desc4">/home/antoine/Documents/Travail/en_cours/Constant/LibreObjet/articles/MONDO/img/Grids-Display/B1-gradient-03.dxf - scale = 0.297030, origin = (1085.371606, -2546.706535), auto = True</desc>
  <defs
     id="defs6">
    <marker
       id="DistanceX"
       orient="auto"
       refX="0"
       refY="0"
       style="overflow:visible">
      <path
         d="M 3,-3 -3,3 M 0,-5 0,5"
         style="stroke:#000000;stroke-width:0.5"
         id="path9"
         inkscape:connector-curvature="0" />
    </marker>
    <pattern
       height="8"
       id="Hatch"
       patternUnits="userSpaceOnUse"
       width="8"
       x="0"
       y="0">
      <path
         d="M8 4 l-4,4"
         linecap="square"
         stroke="#000000"
         stroke-width="0.25"
         id="path12" />
      <path
         d="M6 2 l-4,4"
         linecap="square"
         stroke="#000000"
         stroke-width="0.25"
         id="path14" />
      <path
         d="M4 0 l-4,4"
         linecap="square"
         stroke="#000000"
         stroke-width="0.25"
         id="path16" />
    </pattern>
    <symbol
       id="*Model_Space" />
    <symbol
       id="*Paper_Space" />
    <symbol
       id="*Paper_Space0" />
  </defs>
  <g
     inkscape:groupmode="layer"
     inkscape:label="0"
     id="g21"
     transform="translate(0,-2.2107222e-5)" />
  <g
     inkscape:groupmode="layer"
     inkscape:label="Défaut"
     id="g23"
     transform="translate(0,-2.2107222e-5)">
    <path
       d="m 57.096359,999.73883 a 4.472987,4.472987 0 1 0 -8.945973,0 4.472987,4.472987 0 1 0 8.945973,0 z"
       style="fill:#ffffff;stroke:#000000"
       id="path25"
       inkscape:connector-curvature="0" />
    <path
       d="m 110.51861,999.73883 a 4.472987,4.472987 0 1 0 -8.94597,0 4.472987,4.472987 0 1 0 8.94597,0 z"
       style="fill:#ffffff;stroke:#000000"
       id="path27"
       inkscape:connector-curvature="0" />
    <path
       d="m 133.54576,999.73883 a 4.472987,4.472987 0 1 0 -8.94597,0 4.472987,4.472987 0 1 0 8.94597,0 z"
       style="fill:#ffffff;stroke:#000000"
       id="path29"
       inkscape:connector-curvature="0" />
    <path
       d="m 160.38674,999.73883 a 4.472987,4.472987 0 1 0 -8.94597,0 4.472987,4.472987 0 1 0 8.94597,0 z"
       style="fill:#ffffff;stroke:#000000"
       id="path31"
       inkscape:connector-curvature="0" />
    <path
       d="m 190.85953,999.73883 a 4.47299,4.47299 0 1 0 -8.94598,0 4.47299,4.47299 0 1 0 8.94598,0 z"
       style="fill:#ffffff;stroke:#000000"
       id="path33"
       inkscape:connector-curvature="0" />
    <path
       d="m 224.75749,999.73883 a 4.47299,4.47299 0 1 0 -8.94598,0 4.47299,4.47299 0 1 0 8.94598,0 z"
       style="fill:#ffffff;stroke:#000000"
       id="path35"
       inkscape:connector-curvature="0" />
    <path
       d="m 261.85073,999.73883 a 4.47299,4.47299 0 1 0 -8.94598,0 4.47299,4.47299 0 1 0 8.94598,0 z"
       style="fill:#ffffff;stroke:#000000"
       id="path37"
       inkscape:connector-curvature="0" />
    <path
       d="m 301.88771,999.73883 a 4.472987,4.472987 0 1 0 -8.94597,0 4.472987,4.472987 0 1 0 8.94597,0 z"
       style="fill:#ffffff;stroke:#000000"
       id="path39"
       inkscape:connector-curvature="0" />
    <path
       d="m 344.59694,999.73883 a 4.47299,4.47299 0 1 0 -8.94598,0 4.47299,4.47299 0 1 0 8.94598,0 z"
       style="fill:#ffffff;stroke:#000000"
       id="path41"
       inkscape:connector-curvature="0" />
    <path
       d="m 389.68878,999.73883 a 4.47299,4.47299 0 1 0 -8.94598,0 4.47299,4.47299 0 1 0 8.94598,0 z"
       style="fill:#ffffff;stroke:#000000"
       id="path43"
       inkscape:connector-curvature="0" />
    <path
       d="m 436.85745,999.73883 a 4.47299,4.47299 0 1 0 -8.94598,0 4.47299,4.47299 0 1 0 8.94598,0 z"
       style="fill:#ffffff;stroke:#000000"
       id="path45"
       inkscape:connector-curvature="0" />
    <path
       d="m 485.78307,999.73883 a 4.472987,4.472987 0 1 0 -8.94597,0 4.472987,4.472987 0 1 0 8.94597,0 z"
       style="fill:#ffffff;stroke:#000000"
       id="path47"
       inkscape:connector-curvature="0" />
    <path
       d="m 536.13388,999.73883 a 4.472987,4.472987 0 1 0 -8.94597,0 4.472987,4.472987 0 1 0 8.94597,0 z"
       style="fill:#ffffff;stroke:#000000"
       id="path49"
       inkscape:connector-curvature="0" />
    <path
       d="m 587.56841,999.73883 a 4.472987,4.472987 0 1 0 -8.94597,0 4.472987,4.472987 0 1 0 8.94597,0 z"
       style="fill:#ffffff;stroke:#000000"
       id="path51"
       inkscape:connector-curvature="0" />
    <path
       d="m 639.73789,999.73883 a 4.47299,4.47299 0 1 0 -8.94598,0 4.47299,4.47299 0 1 0 8.94598,0 z"
       style="fill:#ffffff;stroke:#000000"
       id="path53"
       inkscape:connector-curvature="0" />
    <path
       d="m 695.9441,999.73883 a 4.472987,4.472987 0 1 0 -8.94597,0 4.472987,4.472987 0 1 0 8.94597,0 z"
       style="fill:#ffffff;stroke:#000000"
       id="path55"
       inkscape:connector-curvature="0" />
    <path
       d="m 79.591257,999.53218 a 4.472987,4.472987 0 1 0 -8.945974,0 4.472987,4.472987 0 1 0 8.945974,0 z"
       style="fill:#ffffff;stroke:#000000"
       id="path57"
       inkscape:connector-curvature="0" />
    <path
       d="m 93.302206,999.53218 a 4.472987,4.472987 0 1 0 -8.945973,0 4.472987,4.472987 0 1 0 8.945973,0 z"
       style="fill:#ffffff;stroke:#000000"
       id="path59"
       inkscape:connector-curvature="0" />
    <path
       d="m 67.967497,999.53218 a 4.472987,4.472987 0 1 0 -8.945973,0 4.472987,4.472987 0 1 0 8.945973,0 z"
       style="fill:#ffffff;stroke:#000000"
       id="path61"
       inkscape:connector-curvature="0" />
    <path
       d="m 57.096359,210.38824 a 4.472987,4.472987 0 1 0 -8.945973,0 4.472987,4.472987 0 1 0 8.945973,0 z"
       style="fill:#ffffff;stroke:#000000"
       id="path215"
       inkscape:connector-curvature="0" />
    <path
       d="m 110.51861,210.38824 a 4.472987,4.472987 0 1 0 -8.94597,0 4.472987,4.472987 0 1 0 8.94597,0 z"
       style="fill:#ffffff;stroke:#000000"
       id="path217"
       inkscape:connector-curvature="0" />
    <path
       d="m 133.54576,210.38824 a 4.472987,4.472987 0 1 0 -8.94597,0 4.472987,4.472987 0 1 0 8.94597,0 z"
       style="fill:#ffffff;stroke:#000000"
       id="path219"
       inkscape:connector-curvature="0" />
    <path
       d="m 160.38674,210.38824 a 4.472987,4.472987 0 1 0 -8.94597,0 4.472987,4.472987 0 1 0 8.94597,0 z"
       style="fill:#ffffff;stroke:#000000"
       id="path221"
       inkscape:connector-curvature="0" />
    <path
       d="m 190.85953,210.38824 a 4.47299,4.47299 0 1 0 -8.94598,0 4.47299,4.47299 0 1 0 8.94598,0 z"
       style="fill:#ffffff;stroke:#000000"
       id="path223"
       inkscape:connector-curvature="0" />
    <path
       d="m 224.75749,210.38824 a 4.47299,4.47299 0 1 0 -8.94598,0 4.47299,4.47299 0 1 0 8.94598,0 z"
       style="fill:#ffffff;stroke:#000000"
       id="path225"
       inkscape:connector-curvature="0" />
    <path
       d="m 261.85073,210.38824 a 4.47299,4.47299 0 1 0 -8.94598,0 4.47299,4.47299 0 1 0 8.94598,0 z"
       style="fill:#ffffff;stroke:#000000"
       id="path227"
       inkscape:connector-curvature="0" />
    <path
       d="m 301.88771,210.38824 a 4.472987,4.472987 0 1 0 -8.94597,0 4.472987,4.472987 0 1 0 8.94597,0 z"
       style="fill:#ffffff;stroke:#000000"
       id="path229"
       inkscape:connector-curvature="0" />
    <path
       d="m 344.59694,210.38824 a 4.47299,4.47299 0 1 0 -8.94598,0 4.47299,4.47299 0 1 0 8.94598,0 z"
       style="fill:#ffffff;stroke:#000000"
       id="path231"
       inkscape:connector-curvature="0" />
    <path
       d="m 389.68878,210.38824 a 4.47299,4.47299 0 1 0 -8.94598,0 4.47299,4.47299 0 1 0 8.94598,0 z"
       style="fill:#ffffff;stroke:#000000"
       id="path233"
       inkscape:connector-curvature="0" />
    <path
       d="m 436.85745,210.38824 a 4.47299,4.47299 0 1 0 -8.94598,0 4.47299,4.47299 0 1 0 8.94598,0 z"
       style="fill:#ffffff;stroke:#000000"
       id="path235"
       inkscape:connector-curvature="0" />
    <path
       d="m 485.78307,210.38824 a 4.472987,4.472987 0 1 0 -8.94597,0 4.472987,4.472987 0 1 0 8.94597,0 z"
       style="fill:#ffffff;stroke:#000000"
       id="path237"
       inkscape:connector-curvature="0" />
    <path
       d="m 536.13388,210.38824 a 4.472987,4.472987 0 1 0 -8.94597,0 4.472987,4.472987 0 1 0 8.94597,0 z"
       style="fill:#ffffff;stroke:#000000"
       id="path239"
       inkscape:connector-curvature="0" />
    <path
       d="m 587.56841,210.38824 a 4.472987,4.472987 0 1 0 -8.94597,0 4.472987,4.472987 0 1 0 8.94597,0 z"
       style="fill:#ffffff;stroke:#000000"
       id="path241"
       inkscape:connector-curvature="0" />
    <path
       d="m 639.73789,210.38824 a 4.47299,4.47299 0 1 0 -8.94598,0 4.47299,4.47299 0 1 0 8.94598,0 z"
       style="fill:#ffffff;stroke:#000000"
       id="path243"
       inkscape:connector-curvature="0" />
    <path
       d="m 695.9441,210.38824 a 4.472987,4.472987 0 1 0 -8.94597,0 4.472987,4.472987 0 1 0 8.94597,0 z"
       style="fill:#ffffff;stroke:#000000"
       id="path245"
       inkscape:connector-curvature="0" />
    <path
       d="m 79.591257,210.18159 a 4.472987,4.472987 0 1 0 -8.945974,0 4.472987,4.472987 0 1 0 8.945974,0 z"
       style="fill:#ffffff;stroke:#000000"
       id="path247"
       inkscape:connector-curvature="0" />
    <path
       d="m 93.302206,210.18159 a 4.472987,4.472987 0 1 0 -8.945973,0 4.472987,4.472987 0 1 0 8.945973,0 z"
       style="fill:#ffffff;stroke:#000000"
       id="path249"
       inkscape:connector-curvature="0" />
    <path
       d="m 67.967497,210.18159 a 4.472987,4.472987 0 1 0 -8.945973,0 4.472987,4.472987 0 1 0 8.945973,0 z"
       style="fill:#ffffff;stroke:#000000"
       id="path251"
       inkscape:connector-curvature="0" />
    <path
       d="m 67.967497,52.311471 a 4.472987,4.472987 0 1 0 -8.945973,0 4.472987,4.472987 0 1 0 8.945973,0 z"
       style="fill:#ffffff;stroke:#000000"
       id="path253"
       inkscape:connector-curvature="0" />
    <path
       d="m 93.302206,52.311471 a 4.472987,4.472987 0 1 0 -8.945973,0 4.472987,4.472987 0 1 0 8.945973,0 z"
       style="fill:#ffffff;stroke:#000000"
       id="path255"
       inkscape:connector-curvature="0" />
    <path
       d="m 79.591257,52.311471 a 4.472987,4.472987 0 1 0 -8.945974,0 4.472987,4.472987 0 1 0 8.945974,0 z"
       style="fill:#ffffff;stroke:#000000"
       id="path257"
       inkscape:connector-curvature="0" />
    <path
       d="m 695.9441,52.518126 a 4.472987,4.472987 0 1 0 -8.94597,0 4.472987,4.472987 0 1 0 8.94597,0 z"
       style="fill:#ffffff;stroke:#000000"
       id="path259"
       inkscape:connector-curvature="0" />
    <path
       d="m 639.73789,52.518126 a 4.47299,4.47299 0 1 0 -8.94598,0 4.47299,4.47299 0 1 0 8.94598,0 z"
       style="fill:#ffffff;stroke:#000000"
       id="path261"
       inkscape:connector-curvature="0" />
    <path
       d="m 587.56841,52.518126 a 4.472987,4.472987 0 1 0 -8.94597,0 4.472987,4.472987 0 1 0 8.94597,0 z"
       style="fill:#ffffff;stroke:#000000"
       id="path263"
       inkscape:connector-curvature="0" />
    <path
       d="m 536.13388,52.518126 a 4.472987,4.472987 0 1 0 -8.94597,0 4.472987,4.472987 0 1 0 8.94597,0 z"
       style="fill:#ffffff;stroke:#000000"
       id="path265"
       inkscape:connector-curvature="0" />
    <path
       d="m 485.78307,52.518126 a 4.472987,4.472987 0 1 0 -8.94597,0 4.472987,4.472987 0 1 0 8.94597,0 z"
       style="fill:#ffffff;stroke:#000000"
       id="path267"
       inkscape:connector-curvature="0" />
    <path
       d="m 436.85745,52.518126 a 4.47299,4.47299 0 1 0 -8.94598,0 4.47299,4.47299 0 1 0 8.94598,0 z"
       style="fill:#ffffff;stroke:#000000"
       id="path269"
       inkscape:connector-curvature="0" />
    <path
       d="m 389.68878,52.518126 a 4.47299,4.47299 0 1 0 -8.94598,0 4.47299,4.47299 0 1 0 8.94598,0 z"
       style="fill:#ffffff;stroke:#000000"
       id="path271"
       inkscape:connector-curvature="0" />
    <path
       d="m 344.59694,52.518126 a 4.47299,4.47299 0 1 0 -8.94598,0 4.47299,4.47299 0 1 0 8.94598,0 z"
       style="fill:#ffffff;stroke:#000000"
       id="path273"
       inkscape:connector-curvature="0" />
    <path
       d="m 301.88771,52.518126 a 4.472987,4.472987 0 1 0 -8.94597,0 4.472987,4.472987 0 1 0 8.94597,0 z"
       style="fill:#ffffff;stroke:#000000"
       id="path275"
       inkscape:connector-curvature="0" />
    <path
       d="m 261.85073,52.518126 a 4.47299,4.47299 0 1 0 -8.94598,0 4.47299,4.47299 0 1 0 8.94598,0 z"
       style="fill:#ffffff;stroke:#000000"
       id="path277"
       inkscape:connector-curvature="0" />
    <path
       d="m 224.75749,52.518126 a 4.47299,4.47299 0 1 0 -8.94598,0 4.47299,4.47299 0 1 0 8.94598,0 z"
       style="fill:#ffffff;stroke:#000000"
       id="path279"
       inkscape:connector-curvature="0" />
    <path
       d="m 190.85953,52.518126 a 4.47299,4.47299 0 1 0 -8.94598,0 4.47299,4.47299 0 1 0 8.94598,0 z"
       style="fill:#ffffff;stroke:#000000"
       id="path281"
       inkscape:connector-curvature="0" />
    <path
       d="m 160.38674,52.518126 a 4.472987,4.472987 0 1 0 -8.94597,0 4.472987,4.472987 0 1 0 8.94597,0 z"
       style="fill:#ffffff;stroke:#000000"
       id="path283"
       inkscape:connector-curvature="0" />
    <path
       d="m 133.54576,52.518126 a 4.472987,4.472987 0 1 0 -8.94597,0 4.472987,4.472987 0 1 0 8.94597,0 z"
       style="fill:#ffffff;stroke:#000000"
       id="path285"
       inkscape:connector-curvature="0" />
    <path
       d="m 110.51861,52.518126 a 4.472987,4.472987 0 1 0 -8.94597,0 4.472987,4.472987 0 1 0 8.94597,0 z"
       style="fill:#ffffff;stroke:#000000"
       id="path287"
       inkscape:connector-curvature="0" />
    <path
       d="m 57.096359,52.518126 a 4.472987,4.472987 0 1 0 -8.945973,0 4.472987,4.472987 0 1 0 8.945973,0 z"
       style="fill:#ffffff;stroke:#000000"
       id="path289"
       inkscape:connector-curvature="0" />
  </g>
</svg>
