<?xml version="1.0" encoding="UTF-8" standalone="no"?>
<svg
   xmlns:dc="http://purl.org/dc/elements/1.1/"
   xmlns:cc="http://creativecommons.org/ns#"
   xmlns:rdf="http://www.w3.org/1999/02/22-rdf-syntax-ns#"
   xmlns:svg="http://www.w3.org/2000/svg"
   xmlns="http://www.w3.org/2000/svg"
   xmlns:sodipodi="http://sodipodi.sourceforge.net/DTD/sodipodi-0.dtd"
   xmlns:inkscape="http://www.inkscape.org/namespaces/inkscape"
   width="744.094488189"
   height="1052.36220472"
   id="svg2"
   version="1.1"
   inkscape:version="0.91 r13725"
   sodipodi:docname="rectiligneplan.svg">
  <metadata
     id="metadata155">
    <rdf:RDF>
      <cc:Work
         rdf:about="">
        <dc:format>image/svg+xml</dc:format>
        <dc:type
           rdf:resource="http://purl.org/dc/dcmitype/StillImage" />
        <dc:title></dc:title>
      </cc:Work>
    </rdf:RDF>
  </metadata>
  <sodipodi:namedview
     pagecolor="#ffffff"
     bordercolor="#666666"
     borderopacity="1"
     objecttolerance="10"
     gridtolerance="10"
     guidetolerance="10"
     inkscape:pageopacity="0"
     inkscape:pageshadow="2"
     inkscape:window-width="1280"
     inkscape:window-height="755"
     id="namedview153"
     showgrid="false"
     inkscape:zoom="0.33563086"
     inkscape:cx="747.40566"
     inkscape:cy="278.33787"
     inkscape:window-x="0"
     inkscape:window-y="17"
     inkscape:window-maximized="1"
     inkscape:current-layer="g23" />
  <desc
     id="desc4">/home/antoine/Documents/Travail/en_cours/Constant/Peggy/layout/editorial/img/Grids-Display/B1-rectiligne-02.dxf - scale = 0.297030, origin = (171.843495, 0.000000), auto = True</desc>
  <defs
     id="defs6">
    <marker
       id="DistanceX"
       orient="auto"
       refX="0.0"
       refY="0.0"
       style="overflow:visible">
      <path
         d="M 3,-3 L -3,3 M 0,-5 L  0,5"
         style="stroke:#000000; stroke-width:0.5"
         id="path9" />
    </marker>
    <pattern
       height="8"
       id="Hatch"
       patternUnits="userSpaceOnUse"
       width="8"
       x="0"
       y="0">
      <path
         d="M8 4 l-4,4"
         linecap="square"
         stroke="#000000"
         stroke-width="0.25"
         id="path12" />
      <path
         d="M6 2 l-4,4"
         linecap="square"
         stroke="#000000"
         stroke-width="0.25"
         id="path14" />
      <path
         d="M4 0 l-4,4"
         linecap="square"
         stroke="#000000"
         stroke-width="0.25"
         id="path16" />
    </pattern>
    <symbol
       id="*Model_Space" />
    <symbol
       id="*Paper_Space" />
    <symbol
       id="*Paper_Space0" />
  </defs>
  <g
     inkscape:groupmode="layer"
     inkscape:label="0"
     id="g21" />
  <g
     inkscape:groupmode="layer"
     inkscape:label="Défaut"
     id="g23">
    <path
       d="M 695.944102,52.518126 A 4.472987,4.472987 -0.000000 1 0 686.998129,52.518126 4.472987,4.472987 -0.000000 1 0 695.944102,52.518126 z"
       style="stroke:#000000;fill:#ffffff"
       id="path25" />
    <path
       d="M 604.680139,52.518126 A 4.472987,4.472987 -0.000000 1 0 595.734166,52.518126 4.472987,4.472987 -0.000000 1 0 604.680139,52.518126 z"
       style="stroke:#000000;fill:#ffffff"
       id="path27" />
    <path
       d="M 513.416176,52.518126 A 4.472987,4.472987 -0.000000 1 0 504.470202,52.518126 4.472987,4.472987 -0.000000 1 0 513.416176,52.518126 z"
       style="stroke:#000000;fill:#ffffff"
       id="path29" />
    <path
       d="M 422.152212,52.518126 A 4.472987,4.472987 -0.000000 1 0 413.206239,52.518126 4.472987,4.472987 -0.000000 1 0 422.152212,52.518126 z"
       style="stroke:#000000;fill:#ffffff"
       id="path31" />
    <path
       d="M 330.888249,52.518126 A 4.472987,4.472987 -0.000000 1 0 321.942276,52.518126 4.472987,4.472987 -0.000000 1 0 330.888249,52.518126 z"
       style="stroke:#000000;fill:#ffffff"
       id="path33" />
    <path
       d="M 239.624286,52.518126 A 4.472987,4.472987 -0.000000 1 0 230.678312,52.518126 4.472987,4.472987 -0.000000 1 0 239.624286,52.518126 z"
       style="stroke:#000000;fill:#ffffff"
       id="path35" />
    <path
       d="M 148.360323,52.518126 A 4.472987,4.472987 -0.000000 1 0 139.414349,52.518126 4.472987,4.472987 -0.000000 1 0 148.360323,52.518126 z"
       style="stroke:#000000;fill:#ffffff"
       id="path37" />
    <path
       d="M 57.096359,52.518126 A 4.472987,4.472987 -0.000000 1 0 48.150386,52.518126 4.472987,4.472987 -0.000000 1 0 57.096359,52.518126 z"
       style="stroke:#000000;fill:#ffffff"
       id="path39" />
    <path
       d="m 695.9441,181.83537 a 4.472987,4.472987 0 1 0 -8.94597,0 4.472987,4.472987 0 1 0 8.94597,0 z"
       style="fill:#ffffff;stroke:#000000"
       id="path41"
       inkscape:connector-curvature="0" />
    <path
       d="m 57.096359,181.83537 a 4.472987,4.472987 0 1 0 -8.945973,0 4.472987,4.472987 0 1 0 8.945973,0 z"
       style="fill:#ffffff;stroke:#000000"
       id="path55"
       inkscape:connector-curvature="0" />
    <path
       d="m 695.9441,311.15261 a 4.472987,4.472987 0 1 0 -8.94597,0 4.472987,4.472987 0 1 0 8.94597,0 z"
       style="fill:#ffffff;stroke:#000000"
       id="path57"
       inkscape:connector-curvature="0" />
    <path
       d="m 57.096359,311.15261 a 4.472987,4.472987 0 1 0 -8.945973,0 4.472987,4.472987 0 1 0 8.945973,0 z"
       style="fill:#ffffff;stroke:#000000"
       id="path71"
       inkscape:connector-curvature="0" />
    <path
       d="m 695.9441,440.46986 a 4.472987,4.472987 0 1 0 -8.94597,0 4.472987,4.472987 0 1 0 8.94597,0 z"
       style="fill:#ffffff;stroke:#000000"
       id="path73"
       inkscape:connector-curvature="0" />
    <path
       d="m 57.096359,440.46986 a 4.472987,4.472987 0 1 0 -8.945973,0 4.472987,4.472987 0 1 0 8.945973,0 z"
       style="fill:#ffffff;stroke:#000000"
       id="path87"
       inkscape:connector-curvature="0" />
    <path
       d="m 695.9441,569.7871 a 4.472987,4.472987 0 1 0 -8.94597,0 4.472987,4.472987 0 1 0 8.94597,0 z"
       style="fill:#ffffff;stroke:#000000"
       id="path89"
       inkscape:connector-curvature="0" />
    <path
       d="m 57.096359,569.7871 a 4.472987,4.472987 0 1 0 -8.945973,0 4.472987,4.472987 0 1 0 8.945973,0 z"
       style="fill:#ffffff;stroke:#000000"
       id="path103"
       inkscape:connector-curvature="0" />
    <path
       d="m 695.9441,699.10434 a 4.472987,4.472987 0 1 0 -8.94597,0 4.472987,4.472987 0 1 0 8.94597,0 z"
       style="fill:#ffffff;stroke:#000000"
       id="path105"
       inkscape:connector-curvature="0" />
    <path
       d="m 57.096359,699.10434 a 4.472987,4.472987 0 1 0 -8.945973,0 4.472987,4.472987 0 1 0 8.945973,0 z"
       style="fill:#ffffff;stroke:#000000"
       id="path119"
       inkscape:connector-curvature="0" />
    <path
       d="m 695.9441,826.42159 a 4.472987,4.472987 0 1 0 -8.94597,0 4.472987,4.472987 0 1 0 8.94597,0 z"
       style="fill:#ffffff;stroke:#000000"
       id="path121"
       inkscape:connector-curvature="0" />
    <path
       d="m 57.096359,826.42159 a 4.472987,4.472987 0 1 0 -8.945973,0 4.472987,4.472987 0 1 0 8.945973,0 z"
       style="fill:#ffffff;stroke:#000000"
       id="path135"
       inkscape:connector-curvature="0" />
    <path
       d="m 695.9441,955.73883 a 4.472987,4.472987 0 1 0 -8.94597,0 4.472987,4.472987 0 1 0 8.94597,0 z"
       style="fill:#ffffff;stroke:#000000"
       id="path137"
       inkscape:connector-curvature="0" />
    <path
       d="m 604.68014,955.73883 a 4.472987,4.472987 0 1 0 -8.94597,0 4.472987,4.472987 0 1 0 8.94597,0 z"
       style="fill:#ffffff;stroke:#000000"
       id="path139"
       inkscape:connector-curvature="0" />
    <path
       d="m 513.41618,955.73883 a 4.47299,4.47299 0 1 0 -8.94598,0 4.47299,4.47299 0 0 0 8.94598,0 z"
       style="fill:#ffffff;stroke:#000000"
       id="path141"
       inkscape:connector-curvature="0" />
    <path
       d="m 422.15221,955.73883 a 4.472987,4.472987 0 1 0 -8.94597,0 4.472987,4.472987 0 1 0 8.94597,0 z"
       style="fill:#ffffff;stroke:#000000"
       id="path143"
       inkscape:connector-curvature="0" />
    <path
       d="m 330.88825,955.73883 a 4.472987,4.472987 0 1 0 -8.94597,0 4.472987,4.472987 0 1 0 8.94597,0 z"
       style="fill:#ffffff;stroke:#000000"
       id="path145"
       inkscape:connector-curvature="0" />
    <path
       d="m 239.62429,955.73883 a 4.47299,4.47299 0 1 0 -8.94598,0 4.47299,4.47299 0 0 0 8.94598,0 z"
       style="fill:#ffffff;stroke:#000000"
       id="path147"
       inkscape:connector-curvature="0" />
    <path
       d="m 148.36032,955.73883 a 4.472987,4.472987 0 1 0 -8.94597,0 4.472987,4.472987 0 0 0 8.94597,0 z"
       style="fill:#ffffff;stroke:#000000"
       id="path149"
       inkscape:connector-curvature="0" />
    <path
       d="m 57.096359,955.73883 a 4.472987,4.472987 0 1 0 -8.945973,0 4.472987,4.472987 0 1 0 8.945973,0 z"
       style="fill:#ffffff;stroke:#000000"
       id="path151"
       inkscape:connector-curvature="0" />
  </g>
</svg>
