<?xml version="1.0" encoding="UTF-8" standalone="no"?>
<!-- Created with Inkscape (http://www.inkscape.org/) -->

<svg
   xmlns:dc="http://purl.org/dc/elements/1.1/"
   xmlns:cc="http://creativecommons.org/ns#"
   xmlns:rdf="http://www.w3.org/1999/02/22-rdf-syntax-ns#"
   xmlns:svg="http://www.w3.org/2000/svg"
   xmlns="http://www.w3.org/2000/svg"
   xmlns:sodipodi="http://sodipodi.sourceforge.net/DTD/sodipodi-0.dtd"
   xmlns:inkscape="http://www.inkscape.org/namespaces/inkscape"
   width="24pt"
   height="16pt"
   viewBox="0 0 30.000002 20"
   id="svg4292"
   version="1.1"
   inkscape:version="0.91 r13725"
   sodipodi:docname="puce-black-fr.svg">
  <defs
     id="defs4294" />
  <sodipodi:namedview
     id="base"
     pagecolor="#ffffff"
     bordercolor="#666666"
     borderopacity="1.0"
     inkscape:pageopacity="0.0"
     inkscape:pageshadow="2"
     inkscape:zoom="9.9971693"
     inkscape:cx="20.495141"
     inkscape:cy="-4.8003942"
     inkscape:document-units="px"
     inkscape:current-layer="layer1"
     showgrid="false"
     units="pt"
     inkscape:window-width="1280"
     inkscape:window-height="755"
     inkscape:window-x="0"
     inkscape:window-y="17"
     inkscape:window-maximized="1" />
  <metadata
     id="metadata4297">
    <rdf:RDF>
      <cc:Work
         rdf:about="">
        <dc:format>image/svg+xml</dc:format>
        <dc:type
           rdf:resource="http://purl.org/dc/dcmitype/StillImage" />
        <dc:title />
      </cc:Work>
    </rdf:RDF>
  </metadata>
  <g
     inkscape:label="Calque 1"
     inkscape:groupmode="layer"
     id="layer1"
     transform="translate(0,-1032.3623)">
    <path
       d="m 13.973753,1042.3371 a 4.472987,4.472987 0 1 0 -8.9459696,0 4.472987,4.472987 0 1 0 8.9459696,0 z"
       style="fill:#000000;stroke:#000000;stroke-width:1.00000012;stroke-miterlimit:4;stroke-dasharray:none;stroke-opacity:1"
       id="path143"
       inkscape:connector-curvature="0" />
    <text
       xml:space="preserve"
       style="font-style:normal;font-weight:normal;font-size:9.63402748px;line-height:125%;font-family:sans-serif;letter-spacing:0px;word-spacing:0px;fill:#000000;fill-opacity:1;stroke:#ffffff;stroke-width:0.59187281;stroke-linecap:butt;stroke-linejoin:miter;stroke-miterlimit:4;stroke-dasharray:none;stroke-opacity:1"
       x="6.0767217"
       y="1045.6196"
       id="text4134"
       sodipodi:linespacing="125%"><tspan
         sodipodi:role="line"
         id="tspan4136"
         x="6.0767217"
         y="1045.6196"
         style="font-style:normal;font-variant:normal;font-weight:normal;font-stretch:normal;font-family:ocr-pbi-canonique;-inkscape-font-specification:ocr-pbi-canonique;fill:#ffffff;stroke:#ffffff;stroke-width:0.59187281;stroke-miterlimit:4;stroke-dasharray:none;stroke-opacity:1">F</tspan></text>
    <path
       d="m 23.973756,1042.3371 a 4.4729875,4.4729875 0 1 0 -8.94597,0 4.4729875,4.4729875 0 1 0 8.94597,0 z"
       style="fill:#000000;stroke:#000000;stroke-width:1.00000012;stroke-miterlimit:4;stroke-dasharray:none;stroke-opacity:1"
       id="path143-9"
       inkscape:connector-curvature="0" />
    <text
       xml:space="preserve"
       style="font-style:normal;font-weight:normal;font-size:9.63402748px;line-height:125%;font-family:sans-serif;letter-spacing:0px;word-spacing:0px;fill:#000000;fill-opacity:1;stroke:#ffffff;stroke-width:0.59187281;stroke-linecap:butt;stroke-linejoin:miter;stroke-miterlimit:4;stroke-dasharray:none;stroke-opacity:1"
       x="16.402012"
       y="1045.6195"
       id="text4134-1"
       sodipodi:linespacing="125%"><tspan
         sodipodi:role="line"
         id="tspan4136-2"
         x="16.402012"
         y="1045.6195"
         style="font-style:normal;font-variant:normal;font-weight:normal;font-stretch:normal;font-family:ocr-pbi-canonique;-inkscape-font-specification:ocr-pbi-canonique;fill:#ffffff;stroke:#ffffff;stroke-width:0.59187281;stroke-miterlimit:4;stroke-dasharray:none;stroke-opacity:1">R</tspan></text>
  </g>
</svg>
